{
  "classifierPath" : "meta::pure::metamodel::extension::Profile",
  "content" : {
    "_type" : "profile",
    "name" : "MyExtension",
    "package" : "model",
    "stereotypes" : [ "important" ],
    "tags" : [ "doc" ]
  }
}